[gd_resource type="GDNativeLibrary" format=2]

[resource]
entry/HTML5.wasm32 = "res://lib/lib_1927.wasm"
entry/OSX.64 = "res://lib/liblib_1927.dylib"
dependency/HTML5.wasm32 = [  ]
dependency/OSX.64 = [  ]
